[{"id":1, "deleted_at":"", "title":"0", "titler":"\u041e\u0431\u043b\u0434\u0435\u0440\u0436\u0430\u043c\u0434\u0456\u043d\u0456\u0441\u0442\u0440\u0430\u0446\u0456\u0457", "created_at":"", "updated_at":"2021-05-20 17:42:04", "index":0},
 {"id":2, "deleted_at":"", "title":"\u041f\u0440\u0435\u0437\u0438\u0434\u0435\u043d\u0442 \u0423\u043a\u0440\u0430\u0457\u043d\u0438", "titler":"\u041f\u0440\u0435\u0437\u0438\u0434\u0435\u043d\u0442\u0430 \u0423\u043a\u0440\u0430\u0457\u043d\u0438", "created_at":"", "updated_at":"", "index":0},
 {"id":3, "deleted_at":"", "title":"\u041e\u0444\u0456\u0441 \u041f\u0440\u0435\u0437\u0438\u0434\u0435\u043d\u0442\u0430 \u0423\u043a\u0440\u0430\u0457\u043d\u0438", "titler":"\u0410\u0434\u043c\u0456\u043d\u0456\u0441\u0442\u0440\u0430\u0446\u0456\u0457 \u043f\u0440\u0435\u0437\u0438\u0434\u0435\u043d\u0442\u0430 \u0423\u043a\u0440\u0430\u0457\u043d\u0438", "created_at":"", "updated_at":"2021-01-04 16:15:22", "index":0},
 {"id":4, "deleted_at":"", "title":"\u0423\u0440\u044f\u0434\u043e\u0432\u0430 \u0433\u0430\u0440\u044f\u0447\u0430 \u043b\u0456\u043d\u0456\u044f", "titler":"\u0423\u0440\u044f\u0434\u043e\u0432\u043e\u0457 \u0433\u0430\u0440\u044f\u0447\u043e\u0457 \u043b\u0456\u043d\u0456\u0457", "created_at":"2021-01-04 16:16:17", "updated_at":"2021-01-04 16:16:17", "index":0},
 {"id":5, "deleted_at":"", "title":"\u0421\u0435\u043a\u0440\u0435\u0442\u0430\u0440\u0456\u0430\u0442 \u041a\u0430\u0431\u0456\u043d\u0435\u0442\u0443 \u041c\u0456\u043d\u0456\u0441\u0442\u0440\u0456\u0432 \u0423\u043a\u0440\u0430\u0457\u043d\u0438", "titler":"\u0421\u0435\u043a\u0440\u0435\u0442\u0430\u0440\u0456\u0430\u0442\u0443 \u041a\u0430\u0431\u0456\u043d\u0435\u0442\u0443 \u041c\u0456\u043d\u0456\u0441\u0442\u0440\u0456\u0432 \u0423\u043a\u0440\u0430\u0457\u043d\u0438", "created_at":"2021-01-05 16:48:36", "updated_at":"2021-01-05 16:48:36", "index":0},
 {"id":6, "deleted_at":"", "title":"\u0410\u043f\u0430\u0440\u0430\u0442 \u0412\u0435\u0440\u0445\u043e\u0432\u043d\u043e\u0457 \u0420\u0430\u0434\u0438 \u0423\u043a\u0440\u0430\u0457\u043d\u0438", "titler":"\u0410\u043f\u0430\u0440\u0430\u0442\u0443 \u0412\u0435\u0440\u0445\u043e\u0432\u043d\u043e\u0457 \u0420\u0430\u0434\u0438 \u0423\u043a\u0440\u0430\u0457\u043d\u0438", "created_at":"2021-01-05 16:49:04", "updated_at":"2021-01-05 16:49:04", "index":0},
 {"id":7, "deleted_at":"", "title":"\u0421\u0435\u043a\u0440\u0435\u0442\u0430\u0440\u0456\u0430\u0442 \u0423\u043f\u043e\u0432\u043d\u043e\u0432\u0430\u0436\u0435\u043d\u043e\u0433\u043e \u0412\u0435\u0440\u0445\u043e\u0432\u043d\u043e\u0457 \u0420\u0430\u0434\u0438 \u0423\u043a\u0440\u0430\u0457\u043d\u0438 \u0437 \u043f\u0440\u0430\u0432 \u043b\u044e\u0434\u0438\u043d\u0438", "titler":"\u0421\u0435\u043a\u0440\u0435\u0442\u0430\u0440\u0456\u0430\u0442\u0443 \u0423\u043f\u043e\u0432\u043d\u043e\u0432\u0430\u0436\u0435\u043d\u043e\u0433\u043e \u0412\u0435\u0440\u0445\u043e\u0432\u043d\u043e\u0457 \u0420\u0430\u0434\u0438 \u0423\u043a\u0440\u0430\u0457\u043d\u0438 \u0437 \u043f\u0440\u0430\u0432 \u043b\u044e\u0434\u0438\u043d\u0438", "created_at":"2021-01-05 16:50:29", "updated_at":"2021-01-05 16:50:29", "index":0},
 {"id":8, "deleted_at":"", "title":"\u0423\u043f\u043e\u0432\u043d\u043e\u0432\u0430\u0436\u0435\u043d\u0438\u0439 \u041f\u0440\u0435\u0437\u0438\u0434\u0435\u043d\u0442\u0430 \u0423\u043a\u0440\u0430\u0457\u043d\u0438 \u0437 \u043f\u0440\u0430\u0432 \u0434\u0438\u0442\u0438\u043d\u0438", "titler":"\u0423\u043f\u043e\u0432\u043d\u043e\u0432\u0430\u0436\u0435\u043d\u043e\u0433\u043e \u041f\u0440\u0435\u0437\u0438\u0434\u0435\u043d\u0442\u0430 \u0423\u043a\u0440\u0430\u0457\u043d\u0438 \u0437 \u043f\u0440\u0430\u0432 \u0434\u0438\u0442\u0438\u043d\u0438", "created_at":"2021-01-05 16:50:57", "updated_at":"2021-01-05 16:50:57", "index":0},
 {"id":9, "deleted_at":"", "title":"\u0415\u043b\u0435\u043a\u0442\u0440\u043e\u043d\u043d\u0430 \u043f\u043e\u0448\u0442\u0430", "titler":"\u0415\u043b\u0435\u043a\u0442\u0440\u043e\u043d\u043d\u043e\u044e \u043f\u043e\u0448\u0442\u043e\u044e", "created_at":"2021-01-05 16:59:40", "updated_at":"2021-01-05 16:59:40", "index":0},
 {"id":10, "deleted_at":"", "title":"\u041c\u0456\u043d\u0456\u0441\u0442\u0435\u0440\u0441\u0442\u0432\u043e \u0440\u043e\u0437\u0432\u0438\u0442\u043a\u0443 \u0433\u0440\u043e\u043c\u0430\u0434 \u0442\u0430 \u0442\u0435\u0440\u0438\u0442\u043e\u0440\u0456\u0439 \u0423\u043a\u0440\u0430\u0457\u043d\u0438", "titler":"\u041c\u0456\u043d\u0456\u0441\u0442\u0435\u0440\u0441\u0442\u0432\u0430 \u0440\u043e\u0437\u0432\u0438\u0442\u043a\u0443 \u0433\u0440\u043e\u043c\u0430\u0434 \u0442\u0430 \u0442\u0435\u0440\u0438\u0442\u043e\u0440\u0456\u0439 \u0423\u043a\u0440\u0430\u0457\u043d\u0438", "created_at":"2021-01-26 12:48:21", "updated_at":"2021-01-26 12:48:21", "index":0},
 {"id":11, "deleted_at":"", "title":"\u0416\u0438\u0442\u043e\u043c\u0438\u0440\u0441\u044c\u043a\u0430 \u043e\u0431\u043b\u0430\u0441\u043d\u0430 \u0440\u0430\u0434\u0430", "titler":"\u0416\u0438\u0442\u043e\u043c\u0438\u0440\u0441\u044c\u043a\u043e\u0457 \u043e\u0431\u043b\u0430\u0441\u043d\u043e\u0457 \u0440\u0430\u0434\u0438", "created_at":"2021-02-04 12:25:48", "updated_at":"2021-02-04 12:25:48", "index":0},
 {"id":12, "deleted_at":"", "title":"\u041e\u0444\u0456\u0441 \u0413\u0435\u043d\u0435\u0440\u0430\u043b\u044c\u043d\u043e\u0433\u043e \u043f\u0440\u043e\u043a\u0443\u0440\u043e\u0440\u0430 \u0423\u043a\u0440\u0430\u0457\u043d\u0438", "titler":"\u041e\u0444\u0456\u0441\u0430 \u0413\u0435\u043d\u0435\u0440\u0430\u043b\u044c\u043d\u043e\u0433\u043e \u043f\u0440\u043e\u043a\u0443\u0440\u043e\u0440\u0430 \u0423\u043a\u0440\u0430\u0457\u043d\u0438", "created_at":"2021-02-05 17:43:28", "updated_at":"2021-02-05 17:43:28", "index":0},
 {"id":13, "deleted_at":"", "title":"\u041d\u0430\u0446\u0456\u043e\u043d\u0430\u043b\u044c\u043d\u0430 \u0441\u043e\u0446\u0456\u0430\u043b\u044c\u043d\u0430 \u0441\u0435\u0440\u0432\u0456\u0441\u043d\u0430 \u0441\u043b\u0443\u0436\u0431\u0430 \u0423\u043a\u0440\u0430\u0457\u043d\u0438", "titler":"\u041d\u0430\u0446\u0456\u043e\u043d\u0430\u043b\u044c\u043d\u0430 \u0441\u043e\u0446\u0456\u0430\u043b\u044c\u043d\u0430 \u0441\u0435\u0440\u0432\u0456\u0441\u043d\u0430 \u0441\u043b\u0443\u0436\u0431\u0430 \u0423\u043a\u0440\u0430\u0457\u043d\u0438", "created_at":"2021-02-10 16:39:21", "updated_at":"2021-02-10 16:39:21", "index":0},
 {"id":14, "deleted_at":"", "title":"\u0413\u0435\u043d\u0435\u0440\u0430\u043b\u044c\u043d\u0430 \u043f\u0440\u043e\u043a\u0443\u0440\u0430\u0442\u0443\u0440\u0430 \u0423\u043a\u0440\u0430\u0457\u043d\u0438", "titler":"\u0413\u0435\u043d\u0435\u0440\u0430\u043b\u044c\u043d\u0430 \u043f\u0440\u043e\u043a\u0443\u0440\u0430\u0442\u0443\u0440\u0430 \u0423\u043a\u0440\u0430\u0457\u043d\u0438", "created_at":"2021-02-10 16:40:00", "updated_at":"2021-02-10 16:40:00", "index":0},
 {"id":15, "deleted_at":"", "title":"\"\u0413\u0410\u0420\u042f\u0427\u0410 \u041b\u0406\u041d\u0406\u042f\" \u0413\u041e\u041b\u041e\u0412\u0418 \u041e\u0414\u0410", "titler":"\"\u0413\u0410\u0420\u042f\u0427\u0410 \u041b\u0406\u041d\u0406\u042f\" \u0413\u041e\u041b\u041e\u0412\u0418 \u041e\u0414\u0410", "created_at":"2021-02-10 16:40:39", "updated_at":"2021-02-10 16:40:39", "index":0},
 {"id":16, "deleted_at":"", "title":"\u041c\u0456\u043d\u0456\u0441\u0442\u0435\u0440\u0441\u0442\u0432\u043e \u0441\u043e\u0446\u0456\u0430\u043b\u044c\u043d\u043e\u0457 \u043f\u043e\u043b\u0456\u0442\u0438\u043a\u0438 \u0423\u043a\u0440\u0430\u0457\u043d\u0438", "titler":"\u041c\u0456\u043d\u0456\u0441\u0442\u0435\u0440\u0441\u0442\u0432\u0443 \u0441\u043e\u0446\u0456\u0430\u043b\u044c\u043d\u043e\u0457 \u043f\u043e\u043b\u0456\u0442\u0438\u043a\u0438 \u0423\u043a\u0440\u0430\u0457\u043d\u0438", "created_at":"2021-02-19 17:37:21", "updated_at":"2021-02-19 17:37:21", "index":0},
 {"id":17, "deleted_at":"", "title":"\u041c\u0456\u043d\u0456\u0441\u0442\u0435\u0440\u0441\u0442\u0432\u043e \u0432\u043d\u0443\u0442\u0440\u0456\u0448\u043d\u0456\u0445 \u0441\u043f\u0440\u0430\u0432 \u0423\u043a\u0440\u0430\u0457\u043d\u0438", "titler":"\u041c\u0456\u043d\u0456\u0441\u0442\u0435\u0440\u0441\u0442\u0432\u0430 \u0432\u043d\u0443\u0442\u0440\u0456\u0448\u043d\u0456\u0445 \u0441\u043f\u0440\u0430\u0432 \u0423\u043a\u0440\u0430\u0457\u043d\u0438", "created_at":"2021-02-23 19:21:53", "updated_at":"2021-02-23 19:21:53", "index":0},
 {"id":18, "deleted_at":"", "title":"\u0406\u043d\u0448\u0456 \u043e\u0440\u0433\u0430\u043d\u0438 \u0432\u043b\u0430\u0434\u0438, \u043e\u0440\u0433\u0430\u043d\u0456\u0437\u0430\u0446\u0456\u0457, \u0443\u0441\u0442\u0430\u043d\u043e\u0432\u0438", "titler":"\u0406\u043d\u0448\u0456 \u043e\u0440\u0433\u0430\u043d\u0438 \u0432\u043b\u0430\u0434\u0438, \u043e\u0440\u0433\u0430\u043d\u0456\u0437\u0430\u0446\u0456\u0457, \u0443\u0441\u0442\u0430\u043d\u043e\u0432\u0438", "created_at":"2021-02-23 19:25:22", "updated_at":"2021-02-23 19:25:22", "index":0},
 {"id":19, "deleted_at":"", "title":"\u041f\u0440\u0435\u043c'\u0454\u0440-\u043c\u0456\u043d\u0456\u0441\u0442\u0440 \u0423\u043a\u0440\u0430\u0457\u043d\u0438", "titler":"\u041f\u0440\u0435\u043c'\u0454\u0440-\u043c\u0456\u043d\u0456\u0441\u0442\u0440\u0430 \u0423\u043a\u0440\u0430\u0457\u043d\u0438", "created_at":"2021-03-02 14:12:25", "updated_at":"2021-03-02 14:12:25", "index":0},
 {"id":20, "deleted_at":"", "title":"\u041d\u0430\u0440\u043e\u0434\u043d\u0438\u0439 \u0434\u0435\u043f\u0443\u0442\u0430\u0442 \u0423\u043a\u0440\u0430\u0457\u043d\u0438", "titler":"\u041d\u0430\u0440\u043e\u0434\u043d\u043e\u043c\u0443 \u0434\u0435\u043f\u0443\u0442\u0430\u0442\u0443 \u0423\u043a\u0440\u0430\u0457\u043d\u0438", "created_at":"2021-03-02 14:45:26", "updated_at":"2021-03-02 14:45:26", "index":0},
 {"id":21, "deleted_at":"", "title":"\u0413\u043e\u043b\u043e\u0432\u0430 \u0412\u0435\u0440\u0445\u043e\u0432\u043d\u043e\u0457 \u0420\u0430\u0434\u0438 \u0423\u043a\u0440\u0430\u0457\u043d\u0438", "titler":"\u0413\u043e\u043b\u043e\u0432\u0456 \u0412\u0435\u0440\u0445\u043e\u0432\u043d\u043e\u0457 \u0420\u0430\u0434\u0438 \u0423\u043a\u0440\u0430\u0457\u043d\u0438", "created_at":"2021-03-02 14:47:22", "updated_at":"2021-03-02 14:47:22", "index":0},
 {"id":22, "deleted_at":"", "title":"\u041c\u0456\u043d\u0456\u0441\u0442\u0435\u0440\u0441\u0442\u0432\u043e \u0437 \u043f\u0438\u0442\u0430\u043d\u044c \u0416\u041a\u0413 \u0423\u043a\u0440\u0430\u0457\u043d\u0438", "titler":"\u041c\u0456\u043d\u0456\u0441\u0442\u0435\u0440\u0441\u0442\u0432\u0443 \u0437 \u043f\u0438\u0442\u0430\u043d\u044c \u0416\u041a\u0413 \u0423\u043a\u0440\u0430\u0457\u043d\u0438", "created_at":"2021-03-02 14:49:25", "updated_at":"2021-03-02 14:49:25", "index":0},
 {"id":23, "deleted_at":"", "title":"\u041c\u0456\u043d\u0456\u0441\u0442\u0435\u0440\u0441\u0442\u0432\u043e \u0435\u043a\u043e\u043b\u043e\u0433\u0456\u0457 \u0442\u0430 \u043f\u0440\u0438\u0440\u043e\u0434\u043d\u0438\u0445 \u0440\u0435\u0441\u0443\u0440\u0441\u0456\u0432 \u0423\u043a\u0440\u0430\u0457\u043d\u0438", "titler":"\u041c\u0456\u043d\u0456\u0441\u0442\u0435\u0440\u0441\u0442\u0432\u0443 \u0435\u043a\u043e\u043b\u043e\u0433\u0456\u0457 \u0442\u0430 \u043f\u0440\u0438\u0440\u043e\u0434\u043d\u0438\u0445 \u0440\u0435\u0441\u0443\u0440\u0441\u0456\u0432 \u0423\u043a\u0440\u0430\u0457\u043d\u0438", "created_at":"2021-03-02 14:50:22", "updated_at":"2021-03-02 14:50:22", "index":0},
 {"id":24, "deleted_at":"", "title":"\u041c\u0456\u043d\u0456\u0441\u0442\u0435\u0440\u0441\u0442\u0432\u043e \u0435\u043a\u043e\u043d\u043e\u043c\u0456\u043a\u0438 \u0423\u043a\u0440\u0430\u0457\u043d\u0438", "titler":"\u041c\u0456\u043d\u0456\u0441\u0442\u0435\u0440\u0441\u0442\u0432\u0443 \u0435\u043a\u043e\u043d\u043e\u043c\u0456\u043a\u0438 \u0423\u043a\u0440\u0430\u0457\u043d\u0438", "created_at":"2021-03-02 14:51:01", "updated_at":"2021-03-02 14:51:01", "index":0},
 {"id":25, "deleted_at":"", "title":"\u041c\u0456\u043d\u0456\u0441\u0442\u0435\u0440\u0441\u0442\u0432\u043e \u043f\u0430\u043b\u0438\u0432\u0430 \u0442\u0430 \u0435\u043d\u0435\u0440\u0433\u0435\u0442\u0438\u043a\u0438 \u0423\u043a\u0440\u0430\u0457\u043d\u0438", "titler":"\u041c\u0456\u043d\u0456\u0441\u0442\u0435\u0440\u0441\u0442\u0432\u0443 \u043f\u0430\u043b\u0438\u0432\u0430 \u0442\u0430 \u0435\u043d\u0435\u0440\u0433\u0435\u0442\u0438\u043a\u0438 \u0423\u043a\u0440\u0430\u0457\u043d\u0438", "created_at":"2021-03-02 14:51:40", "updated_at":"2021-03-02 14:51:40", "index":0},
 {"id":26, "deleted_at":"", "title":"\u041c\u0456\u043d\u0456\u0441\u0442\u0435\u0440\u0441\u0442\u0432\u043e \u0432\u0443\u0433\u0456\u043b\u044c\u043d\u043e\u0457 \u043f\u0440\u043e\u043c\u0438\u0441\u043b\u043e\u0432\u043e\u0441\u0442\u0456 \u0423\u043a\u0440\u0430\u0457\u043d\u0438", "titler":"\u041c\u0456\u043d\u0456\u0441\u0442\u0435\u0440\u0441\u0442\u0432\u0443 \u0432\u0443\u0433\u0456\u043b\u044c\u043d\u043e\u0457 \u043f\u0440\u043e\u043c\u0438\u0441\u043b\u043e\u0432\u043e\u0441\u0442\u0456 \u0423\u043a\u0440\u0430\u0457\u043d\u0438", "created_at":"2021-03-02 14:52:43", "updated_at":"2021-03-02 14:52:43", "index":0},
 {"id":27, "deleted_at":"", "title":"\u041c\u0456\u043d\u0456\u0441\u0442\u0435\u0440\u0441\u0442\u0432\u043e \u0437\u0430\u043a\u043e\u0440\u0434\u043e\u043d\u043d\u0438\u0445 \u0441\u043f\u0440\u0430\u0432 \u0423\u043a\u0440\u0430\u0457\u043d\u0438", "titler":"\u041c\u0456\u043d\u0456\u0441\u0442\u0435\u0440\u0441\u0442\u0432\u0443 \u0437\u0430\u043a\u043e\u0440\u0434\u043e\u043d\u043d\u0438\u0445 \u0441\u043f\u0440\u0430\u0432 \u0423\u043a\u0440\u0430\u0457\u043d\u0438", "created_at":"2021-03-02 14:53:24", "updated_at":"2021-03-02 14:53:24", "index":0},
 {"id":28, "deleted_at":"", "title":"\u041c\u0456\u043d\u0456\u0441\u0442\u0435\u0440\u0441\u0442\u0432\u043e \u043a\u0443\u043b\u044c\u0442\u0443\u0440\u0438 \u0456 \u0442\u0443\u0440\u0438\u0437\u043c\u0443 \u0423\u043a\u0440\u0430\u0457\u043d\u0438", "titler":"\u041c\u0456\u043d\u0456\u0441\u0442\u0435\u0440\u0441\u0442\u0432\u0443 \u043a\u0443\u043b\u044c\u0442\u0443\u0440\u0438 \u0456 \u0442\u0443\u0440\u0438\u0437\u043c\u0443 \u0423\u043a\u0440\u0430\u0457\u043d\u0438", "created_at":"2021-03-02 14:53:58", "updated_at":"2021-03-02 14:53:58", "index":0},
 {"id":29, "deleted_at":"", "title":"\u041c\u0456\u043d\u0456\u0441\u0442\u0435\u0440\u0441\u0442\u0432\u043e \u043d\u0430\u0434\u0437\u0432\u0438\u0447\u0430\u0439\u043d\u0438\u0445 \u0441\u0438\u0442\u0443\u0430\u0446\u0456\u0439 \u0423\u043a\u0440\u0430\u0457\u043d\u0438", "titler":"\u041c\u0456\u043d\u0456\u0441\u0442\u0435\u0440\u0441\u0442\u0432\u0443 \u043d\u0430\u0434\u0437\u0432\u0438\u0447\u0430\u0439\u043d\u0438\u0445 \u0441\u0438\u0442\u0443\u0430\u0446\u0456\u0439 \u0423\u043a\u0440\u0430\u0457\u043d\u0438", "created_at":"2021-03-02 14:56:13", "updated_at":"2021-03-02 14:56:13", "index":0},
 {"id":30, "deleted_at":"", "title":"\u041c\u0456\u043d\u0456\u0441\u0442\u0435\u0440\u0441\u0442\u0432\u043e \u043e\u0431\u043e\u0440\u043e\u043d\u0438 \u0423\u043a\u0440\u0430\u0457\u043d\u0438", "titler":"\u041c\u0456\u043d\u0456\u0441\u0442\u0435\u0440\u0441\u0442\u0432\u0443 \u043e\u0431\u043e\u0440\u043e\u043d\u0438 \u0423\u043a\u0440\u0430\u0457\u043d\u0438", "created_at":"2021-03-02 14:57:46", "updated_at":"2021-03-02 14:57:46", "index":0},
 {"id":31, "deleted_at":"", "title":"\u041c\u0456\u043d\u0456\u0441\u0442\u0440\u0435\u0441\u0442\u0432\u043e \u043e\u0441\u0432\u0456\u0442\u0438 \u0456 \u043d\u0430\u0443\u043a\u0438 \u0423\u043a\u0440\u0430\u0457\u043d\u0438", "titler":"\u041c\u0456\u043d\u0456\u0441\u0442\u0440\u0435\u0441\u0442\u0432\u0443 \u043e\u0441\u0432\u0456\u0442\u0438 \u0456 \u043d\u0430\u0443\u043a\u0438 \u0423\u043a\u0440\u0430\u0457\u043d\u0438", "created_at":"2021-03-02 16:57:15", "updated_at":"2021-03-02 16:57:15", "index":0},
 {"id":32, "deleted_at":"", "title":"\u041c\u0456\u043d\u0456\u0441\u0442\u0440\u0435\u0441\u0442\u0432\u043e \u043e\u0445\u043e\u0440\u043e\u043d\u0438 \u0437\u0434\u043e\u0440\u043e\u0432\"\u044f \u0423\u043a\u0440\u0430\u0457\u043d\u0438", "titler":"\u041c\u0456\u043d\u0456\u0441\u0442\u0440\u0435\u0441\u0442\u0432\u0443 \u043e\u0445\u043e\u0440\u043e\u043d\u0438 \u0437\u0434\u043e\u0440\u043e\u0432\"\u044f \u0423\u043a\u0440\u0430\u0457\u043d\u0438", "created_at":"2021-03-02 16:58:22", "updated_at":"2021-03-02 16:58:22", "index":0},
 {"id":33, "deleted_at":"", "title":"\u041c\u0456\u043d\u0456\u0441\u0442\u0440\u0435\u0441\u0442\u0432\u043e \u043f\u0440\u043e\u043c\u0438\u0441\u043b\u043e\u0432\u043e\u0457 \u043f\u043e\u043b\u0456\u0442\u0438\u043a\u0438 \u0423\u043a\u0440\u0430\u0457\u043d\u0438", "titler":"\u041c\u0456\u043d\u0456\u0441\u0442\u0440\u0435\u0441\u0442\u0432\u0443 \u043f\u0440\u043e\u043c\u0438\u0441\u043b\u043e\u0432\u043e\u0457 \u043f\u043e\u043b\u0456\u0442\u0438\u043a\u0438 \u0423\u043a\u0440\u0430\u0457\u043d\u0438", "created_at":"2021-03-02 16:59:23", "updated_at":"2021-03-02 16:59:23", "index":0},
 {"id":34, "deleted_at":"", "title":"\u041c\u0456\u043d\u0456\u0441\u0442\u0440\u0435\u0441\u0442\u0432\u043e \u0456\u043d\u0444\u0440\u0430\u0441\u0442\u0440\u0443\u043a\u0442\u0443\u0440\u0438 \u0423\u043a\u0440\u0430\u0457\u043d\u0438", "titler":"\u041c\u0456\u043d\u0456\u0441\u0442\u0440\u0435\u0441\u0442\u0432\u043e \u0456\u043d\u0444\u0440\u0430\u0441\u0442\u0440\u0443\u043a\u0442\u0443\u0440\u0438 \u0423\u043a\u0440\u0430\u0457\u043d\u0438", "created_at":"2021-03-02 16:59:50", "updated_at":"2021-03-02 16:59:50", "index":0},
 {"id":35, "deleted_at":"", "title":"\u041c\u0456\u043d\u0456\u0441\u0442\u0440\u0435\u0441\u0442\u0432\u043e \u0443 \u0441\u043f\u0440\u0430\u0432\u0430\u0445 \u0441\u0456\u043c\"\u0457, \u043c\u043e\u043b\u043e\u0434\u0456 \u0442\u0430 \u0441\u043f\u043e\u0440\u0442\u0443 \u0423\u043a\u0440\u0430\u0457\u043d\u0438", "titler":"\u041c\u0456\u043d\u0456\u0441\u0442\u0440\u0435\u0441\u0442\u0432\u043e \u0443 \u0441\u043f\u0440\u0430\u0432\u0430\u0445 \u0441\u0456\u043c\"\u0457, \u043c\u043e\u043b\u043e\u0434\u0456 \u0442\u0430 \u0441\u043f\u043e\u0440\u0442\u0443 \u0423\u043a\u0440\u0430\u0457\u043d\u0438", "created_at":"2021-03-02 17:00:51", "updated_at":"2021-03-02 17:00:51", "index":0},
 {"id":36, "deleted_at":"", "title":"\u041c\u0456\u043d\u0456\u0441\u0442\u0440\u0435\u0441\u0442\u0432\u043e \u0444\u0456\u043d\u0430\u043d\u0441\u0456\u0432 \u0423\u043a\u0440\u0430\u0457\u043d\u0438", "titler":"\u041c\u0456\u043d\u0456\u0441\u0442\u0440\u0435\u0441\u0442\u0432\u043e \u0444\u0456\u043d\u0430\u043d\u0441\u0456\u0432 \u0423\u043a\u0440\u0430\u0457\u043d\u0438", "created_at":"2021-03-02 17:06:00", "updated_at":"2021-03-02 17:06:00", "index":0},
 {"id":37, "deleted_at":"", "title":"\u041c\u0456\u043d\u0456\u0441\u0442\u0440\u0435\u0441\u0442\u0432\u043e \u044e\u0441\u0442\u0438\u0446\u0456\u0457 \u0423\u043a\u0440\u0430\u0457\u043d\u0438", "titler":"\u041c\u0456\u043d\u0456\u0441\u0442\u0440\u0435\u0441\u0442\u0432\u043e \u044e\u0441\u0442\u0438\u0446\u0456\u0457 \u0423\u043a\u0440\u0430\u0457\u043d\u0438", "created_at":"2021-03-02 17:06:52", "updated_at":"2021-03-02 17:06:52", "index":0},
 {"id":38, "deleted_at":"", "title":"\u041f\u0435\u043d\u0441\u0456\u0439\u043d\u0438\u0439 \u0444\u043e\u043d\u0434 \u0423\u043a\u0440\u0430\u0457\u043d\u0438", "titler":"\u041f\u0435\u043d\u0441\u0456\u0439\u043d\u0438\u0439 \u0444\u043e\u043d\u0434 \u0423\u043a\u0440\u0430\u0457\u043d\u0438", "created_at":"2021-03-02 17:07:14", "updated_at":"2021-03-02 17:07:14", "index":0},
 {"id":39, "deleted_at":"", "title":"\u0417\u041c\u0406", "titler":"\u0417\u041c\u0406", "created_at":"2021-03-02 17:07:48", "updated_at":"2021-03-02 17:07:48", "index":0},
 {"id":40, "deleted_at":"", "title":"\u041a\u0430\u0431\u0456\u043d\u0435\u0442 \u041c\u0456\u043d\u0456\u0441\u0442\u0440\u0456\u0432 \u0423\u043a\u0440\u0430\u0457\u043d\u0438", "titler":"\u041a\u0430\u0431\u0456\u043d\u0435\u0442 \u041c\u0456\u043d\u0456\u0441\u0442\u0440\u0456\u0432 \u0423\u043a\u0440\u0430\u0457\u043d\u0438", "created_at":"2021-03-02 17:21:39", "updated_at":"2021-03-02 17:21:39", "index":0},
 {"id":41, "deleted_at":"", "title":"\u0412\u0435\u0440\u0445\u043e\u0432\u043d\u0430 \u0420\u0430\u0434\u0430 \u0423\u043a\u0440\u0430\u0457\u043d\u0438", "titler":"\u0412\u0435\u0440\u0445\u043e\u0432\u043d\u0430 \u0420\u0430\u0434\u0430 \u0423\u043a\u0440\u0430\u0457\u043d\u0438", "created_at":"2021-03-02 17:22:11", "updated_at":"2021-03-02 17:22:11", "index":0},
 {"id":42, "deleted_at":"", "title":"\u0406\u043d\u0448\u0456 \u043e\u0440\u0433\u0430\u043d\u0438", "titler":"\u0406\u043d\u0448\u0456 \u043e\u0440\u0433\u0430\u043d\u0438", "created_at":"2021-03-17 14:47:14", "updated_at":"2021-03-17 14:47:14", "index":0},
 {"id":43, "deleted_at":"", "title":"\u0414\u0435\u0440\u0436\u0430\u0432\u043d\u0430 \u043c\u0456\u0433\u0440\u0430\u0446\u0456\u0439\u043d\u0430 \u0441\u043b\u0443\u0436\u0431\u0430 \u0423\u043a\u0440\u0430\u0457\u043d\u0438", "titler":"\u0414\u0435\u0440\u0436\u0430\u0432\u043d\u0430 \u043c\u0456\u0433\u0440\u0430\u0446\u0456\u0439\u043d\u0430 \u0441\u043b\u0443\u0436\u0431\u0430 \u0423\u043a\u0440\u0430\u0457\u043d\u0438", "created_at":"2021-03-17 14:48:24", "updated_at":"2021-03-17 14:48:24", "index":0},
 {"id":44, "deleted_at":"", "title":"\u041d\u0430\u0446\u0456\u043e\u043d\u0430\u043b\u044c\u043d\u0435 \u0430\u043d\u0442\u0438\u043a\u043e\u0440\u0443\u043f\u0446\u0456\u0439\u043d\u0435 \u0431\u044e\u0440\u043e \u0423\u043a\u0440\u0430\u0457\u043d\u0438", "titler":"\u041d\u0430\u0446\u0456\u043e\u043d\u0430\u043b\u044c\u043d\u0435 \u0430\u043d\u0442\u0438\u043a\u043e\u0440\u0443\u043f\u0446\u0456\u0439\u043d\u0435 \u0431\u044e\u0440\u043e \u0423\u043a\u0440\u0430\u0457\u043d\u0438", "created_at":"2021-05-06 18:15:43", "updated_at":"2021-05-06 18:15:43", "index":0},
 {"id":45, "deleted_at":"", "title":"\u041e\u0431\u043b\u0430\u0441\u043d\u0430 \u0440\u0430\u0434\u0430", "titler":"\u041e\u0431\u043b\u0430\u0441\u043d\u0430 \u0440\u0430\u0434\u0430", "created_at":"2021-06-24 16:13:58", "updated_at":"2021-06-24 16:13:58", "index":0},
 {"id":46, "deleted_at":"", "title":"\u041c\u0456\u043d\u0456\u0441\u0442\u0435\u0440\u0441\u0442\u0432\u043e \u0443 \u0441\u043f\u0440\u0430\u0432\u0430\u0445 \u0432\u0435\u0442\u0435\u0440\u0430\u043d\u0456\u0432 \u0423\u043a\u0440\u0430\u0457\u043d\u0438", "titler":"\u041c\u0456\u043d\u0456\u0441\u0442\u0435\u0440\u0441\u0442\u0432\u043e \u0443 \u0441\u043f\u0440\u0430\u0432\u0430\u0445 \u0432\u0435\u0442\u0435\u0440\u0430\u043d\u0456\u0432 \u0423\u043a\u0440\u0430\u0457\u043d\u0438", "created_at":"2021-07-05 16:14:26", "updated_at":"2021-07-05 16:14:26", "index":0},
 {"id":47, "deleted_at":"", "title":"\u0416\u0438\u0442\u043e\u043c\u0438\u0440\u0441\u044c\u043a\u0430 \u043e\u0431\u043b\u0430\u0441\u043d\u0430 \u043f\u0440\u043e\u043a\u0443\u0440\u0430\u0442\u0443\u0440\u0430", "titler":"\u0416\u0438\u0442\u043e\u043c\u0438\u0440\u0441\u044c\u043a\u0430 \u043e\u0431\u043b\u0430\u0441\u043d\u0430 \u043f\u0440\u043e\u043a\u0443\u0440\u0430\u0442\u0443\u0440\u0430", "created_at":"2021-07-12 15:46:19", "updated_at":"2021-07-12 15:46:19", "index":0}]