[{"id":1, "deleted_at":"", "title":"\u041f\u0435\u043d\u0441\u0456\u043e\u043d\u0435\u0440", "created_at":"", "updated_at":"2021-04-07 11:33:10", "index":1},
 {"id":2, "deleted_at":"", "title":"\u0420\u043e\u0431\u0456\u0442\u043d\u0438\u043a", "created_at":"", "updated_at":"2021-04-07 11:33:10", "index":2},
 {"id":3, "deleted_at":"", "title":"\u0421\u0435\u043b\u044f\u043d\u0438\u043d", "created_at":"", "updated_at":"2021-04-07 11:33:10", "index":3},
 {"id":4, "deleted_at":"", "title":"\u041f\u0440\u0430\u0446\u0456\u0432\u043d\u0438\u043a \u0431\u044e\u0434\u0436\u0435\u0442\u043d\u043e\u0457 \u0441\u0444\u0435\u0440\u0438", "created_at":"2021-01-04 12:54:09", "updated_at":"2021-04-07 11:33:10", "index":4},
 {"id":5, "deleted_at":"", "title":"\u0414\u0435\u0440\u0436\u0430\u0432\u043d\u0438\u0439 \u0441\u043b\u0443\u0436\u0431\u043e\u0432\u0435\u0446\u044c", "created_at":"2021-01-04 12:54:35", "updated_at":"2021-04-07 11:33:10", "index":5},
 {"id":6, "deleted_at":"", "title":"\u0412\u0456\u0439\u0441\u044c\u043a\u043e\u0432\u043e\u0441\u043b\u0443\u0436\u0431\u043e\u0432\u0435\u0446\u044c", "created_at":"2021-01-04 12:54:55", "updated_at":"2021-04-07 11:33:10", "index":6},
 {"id":7, "deleted_at":"", "title":"\u041f\u0456\u0434\u043f\u0440\u0438\u0454\u043c\u0435\u0446\u044c", "created_at":"2021-01-04 12:55:10", "updated_at":"2021-04-07 11:33:10", "index":7},
 {"id":8, "deleted_at":"", "title":"\u0411\u0435\u0437\u0440\u043e\u0431\u0456\u0442\u043d\u0438\u0439", "created_at":"2021-01-04 12:55:24", "updated_at":"2021-04-07 11:33:10", "index":8},
 {"id":9, "deleted_at":"", "title":"\u0423\u0447\u0435\u043d\u044c, \u0441\u0442\u0443\u0434\u0435\u043d\u0442", "created_at":"2021-01-04 12:55:40", "updated_at":"2021-04-07 11:33:10", "index":9},
 {"id":10, "deleted_at":"", "title":"\u0421\u043b\u0443\u0436\u0438\u0442\u0435\u043b\u044c \u0440\u0435\u043b\u0456\u0433\u0456\u0439\u043d\u043e\u0457 \u043e\u0440\u0433\u0430\u043d\u0456\u0437\u0430\u0446\u0456\u0457", "created_at":"2021-01-04 12:56:25", "updated_at":"2021-04-07 11:33:10", "index":10},
 {"id":11, "deleted_at":"", "title":"\u041e\u0441\u043e\u0431\u0430 \u0449\u043e \u043f\u043e\u0437\u0431\u0430\u0432\u043b\u0435\u043d\u0430 \u0432\u043e\u043b\u0456; \u043e\u0441\u043e\u0431\u0430 \u0432\u043e\u043b\u044f \u044f\u043a\u043e\u0457 \u043e\u0431\u043c\u0435\u0436\u0435\u043d\u0430", "created_at":"2021-01-04 12:58:37", "updated_at":"2021-04-07 11:33:10", "index":11},
 {"id":12, "deleted_at":"", "title":"\u0423\u0447\u0430\u0441\u043d\u0438\u043a \u0432\u0456\u0439\u043d\u0438", "created_at":"2021-01-04 12:59:12", "updated_at":"2021-04-07 11:33:10", "index":12},
 {"id":13, "deleted_at":"", "title":"\u0414\u0438\u0442\u0438\u043d\u0430 \u0432\u0456\u0439\u043d\u0438", "created_at":"2021-01-04 12:59:32", "updated_at":"2021-04-07 11:33:10", "index":13},
 {"id":14, "deleted_at":"", "title":"\u0406\u043d\u0432\u0430\u043b\u0456\u0434 \u0412\u0412\u0412", "created_at":"2021-01-04 12:59:45", "updated_at":"2021-04-07 11:33:10", "index":14},
 {"id":15, "deleted_at":"", "title":"\u0406\u043d\u0432\u0430\u043b\u0456\u0434 \u0432\u0456\u0439\u043d\u0438", "created_at":"2021-01-04 12:59:56", "updated_at":"2021-04-07 11:33:10", "index":15},
 {"id":16, "deleted_at":"", "title":"\u0423\u0447\u0430\u0441\u043d\u0438\u043a \u0431\u043e\u0439\u043e\u0432\u0438\u0445 \u0434\u0456\u0439", "created_at":"2021-01-04 13:00:12", "updated_at":"2021-04-07 11:33:10", "index":16},
 {"id":17, "deleted_at":"", "title":"\u0412\u0435\u0442\u0435\u0440\u0430\u043d \u043f\u0440\u0430\u0446\u0456", "created_at":"2021-01-04 13:00:24", "updated_at":"2021-04-07 11:33:10", "index":17},
 {"id":18, "deleted_at":"", "title":"\u041e\u0441\u043e\u0431\u0430 \u0437 \u0456\u043d\u0432\u0430\u043b\u0456\u0434\u043d\u0456\u0441\u0442\u044e (1\u0433\u0440.)", "created_at":"2021-01-04 13:01:23", "updated_at":"2021-04-07 11:33:10", "index":18},
 {"id":19, "deleted_at":"", "title":"\u041e\u0441\u043e\u0431\u0430 \u0437 \u0456\u043d\u0432\u0430\u043b\u0456\u0434\u043d\u0456\u0441\u0442\u044e (2\u0433\u0440.)", "created_at":"2021-01-04 13:01:32", "updated_at":"2021-04-07 11:33:10", "index":19},
 {"id":20, "deleted_at":"", "title":"\u041e\u0441\u043e\u0431\u0430 \u0437 \u0456\u043d\u0432\u0430\u043b\u0456\u0434\u043d\u0456\u0441\u0442\u044e (3\u0433\u0440.)", "created_at":"2021-01-04 13:01:44", "updated_at":"2021-04-07 11:33:10", "index":20},
 {"id":21, "deleted_at":"", "title":"\u0414\u0438\u0442\u0438\u043d\u0430-\u0456\u043d\u0432\u0430\u043b\u0456\u0434", "created_at":"2021-01-04 13:01:54", "updated_at":"2021-04-07 11:33:10", "index":21},
 {"id":22, "deleted_at":"", "title":"\u041e\u0434\u0438\u043d\u043e\u043a\u0430 \u043c\u0430\u0442\u0438", "created_at":"2021-01-04 13:02:04", "updated_at":"2021-04-07 11:33:10", "index":22},
 {"id":23, "deleted_at":"", "title":"\u041c\u0430\u0442\u0438-\u0433\u0435\u0440\u043e\u0457\u043d\u044f", "created_at":"2021-01-04 13:02:32", "updated_at":"2021-04-07 11:33:10", "index":23},
 {"id":24, "deleted_at":"", "title":"\u0411\u0430\u0433\u0430\u0442\u043e\u0434\u0456\u0442\u043d\u0430 \u0441\u0456\u043c`\u044f", "created_at":"2021-01-04 13:02:58", "updated_at":"2021-04-07 11:33:10", "index":24},
 {"id":25, "deleted_at":"", "title":"\u041e\u0441\u043e\u0431\u0430,\u0449\u043e \u043f\u043e\u0442\u0440\u0435\u043f\u0456\u043b\u0430 \u0432\u0456\u0434 \u0427\u0410\u0415\u0421", "created_at":"2021-01-04 13:03:46", "updated_at":"2021-04-07 11:33:10", "index":25},
 {"id":26, "deleted_at":"", "title":"\u0423\u0447\u0430\u0441\u043d\u0438\u043a \u043b\u0456\u043a\u0432\u0456\u0434\u0430\u0446\u0456\u0457 \u043d\u0430\u0441\u043b\u0456\u0434\u043a\u0456\u0432 \u0430\u0432\u0430\u0440\u0456\u0457 \u043d\u0430 \u0427\u0410\u0415\u0421", "created_at":"2021-01-04 13:04:39", "updated_at":"2021-04-07 11:33:11", "index":26},
 {"id":27, "deleted_at":"", "title":"\u0413\u0435\u0440\u043e\u0439 \u0423\u043a\u0440\u0430\u0457\u043d\u0438", "created_at":"2021-01-04 13:04:56", "updated_at":"2021-04-07 11:33:11", "index":27},
 {"id":28, "deleted_at":"", "title":"\u0423\u0447\u0430\u0441\u043d\u0438\u043a \u0410\u0422\u041e", "created_at":"2021-01-04 13:05:07", "updated_at":"2021-04-07 11:33:11", "index":28},
 {"id":29, "deleted_at":"", "title":"\u0427\u043b\u0435\u043d\u0438 \u0441\u0456\u043c\u0435\u0439 \u0443\u0447\u0430\u0441\u043d\u0438\u043a\u0456\u0432 \u0410\u0422\u041e", "created_at":"2021-01-04 13:05:32", "updated_at":"2021-04-07 11:33:11", "index":29},
 {"id":30, "deleted_at":"", "title":"\u0414\u0438\u0442\u0438\u043d\u0430", "created_at":"2021-01-04 13:05:41", "updated_at":"2021-04-07 11:33:11", "index":30},
 {"id":31, "deleted_at":"", "title":"\u0427\u043b\u0435\u043d\u0438 \u0441\u0456\u043c\u0435\u0439 \u0437\u0430\u0433\u0438\u0431\u043b\u0438\u0445 \u0432\u0456\u0439\u0441\u044c\u043a\u043e\u0432\u043e\u0441\u043b\u0443\u0436\u0431\u043e\u0432\u0446\u0456\u0432, \u0432\u0434\u043e\u0432\u0438", "created_at":"2021-01-04 13:06:41", "updated_at":"2021-05-20 14:14:10", "index":31},
 {"id":32, "deleted_at":"", "title":"\u0406\u043d\u0448\u0456", "created_at":"2021-01-04 13:06:52", "updated_at":"2021-04-07 11:33:11", "index":32},
 {"id":33, "deleted_at":"", "title":"0", "created_at":"2021-01-14 14:19:08", "updated_at":"2021-04-07 11:33:11", "index":33}]